{
  "files": {
    "main.css": "/static/css/main.073c9b0a.css",
    "main.js": "/static/js/main.d1f0aa5c.js",
    "static/js/787.6cf5c74a.chunk.js": "/static/js/787.6cf5c74a.chunk.js",
    "static/media/logo.svg": "/static/media/logo.6ce24c58023cc2f8fd88fe9d219db6c6.svg",
    "index.html": "/index.html",
    "main.073c9b0a.css.map": "/static/css/main.073c9b0a.css.map",
    "main.d1f0aa5c.js.map": "/static/js/main.d1f0aa5c.js.map",
    "787.6cf5c74a.chunk.js.map": "/static/js/787.6cf5c74a.chunk.js.map"
  },
  "entrypoints": [
    "static/css/main.073c9b0a.css",
    "static/js/main.d1f0aa5c.js"
  ]
}